{
  "dependencies": {
    "appInsights1": {
      "resourceId": "/subscriptions/[parameters('subscriptionId')]/resourceGroups/[parameters('resourceGroup')]/providers/microsoft.insights/components/ms-store-virtual-communities",
      "type": "appInsights.azure",
      "connectionId": "APPINSIGHTS_INSTRUMENTATIONKEY",
      "secretStore": "AzureAppSettings"
    }
  }
}